Repository Name,File Name,Line Number,Task Name,Smell Name,Smell Description
"['', 'home', 'ghazal', 'prengdl-reproduce', 'testScripts', 'Repository3']",assert.yml,2,assert | Ensure that `epel_next` is set correctly.,Idempotency,None
"['', 'home', 'ghazal', 'prengdl-reproduce', 'testScripts', 'Repository3']",assert.yml,2,assert | Ensure that `epel_next` is set correctly.,Version Specific Installation,None
"['', 'home', 'ghazal', 'prengdl-reproduce', 'testScripts', 'Repository3']",assert.yml,2,assert | Ensure that `epel_next` is set correctly.,Outdated Dependencies,None
"['', 'home', 'ghazal', 'prengdl-reproduce', 'testScripts', 'Repository3']",assert.yml,2,assert | Ensure that `epel_next` is set correctly.,Missing Dependencies,None
"['', 'home', 'ghazal', 'prengdl-reproduce', 'testScripts', 'Repository3']",assert.yml,2,assert | Ensure that `epel_next` is set correctly.,Hardware Specific Commands,None
"['', 'home', 'ghazal', 'prengdl-reproduce', 'testScripts', 'Repository3']",assert.yml,2,assert | Ensure that `epel_next` is set correctly.,Assumption about Environment,"Task did not checked the final execution of the task.
Task did not checked the final execution of the task. None"
"['', 'home', 'ghazal', 'prengdl-reproduce', 'testScripts', 'Repository3']",assert.yml,2,assert | Ensure that `epel_next` is set correctly.,Broken Dependency Chain,"Task did not checked the correctness of execution.
Task did not checked the correctness of execution."
