Task name,Idempotency,Version specific installation,Outdated dependencies,Missing dependencies,Assumption about environment,Hardware specific commands,Broken Dependency
converge,None,None,None,None,"Task did not checked the final execution of the task.
Task did not checked the final execution of the task.
Task did not checked the final execution of the task.
Task did not checked the final execution of the task.
Task did not checked the final execution of the task. None",None,"Task did not checked the correctness of execution.
Task did not checked the correctness of execution.
Task did not checked the correctness of execution.
Task did not checked the correctness of execution.
Task did not checked the correctness of execution."
