Task name,Idempotency,Version specific installation,Outdated dependencies,Missing dependencies,Assumption about environment,Hardware specific commands,Broken Dependency
Update apt cache.,Task violates idempotency because it installs or upgrades packages with apt.,None,Task uses apt to install the latest packages.,None,"Task did not checked the final execution of the task.
Task did not checked the final execution of the task.
Task did not checked the final execution of the task.
Task did not checked the final execution of the task. None",None,"Task did not checked the correctness of execution.
Task did not checked the correctness of execution.
Task did not checked the correctness of execution.
Task did not checked the correctness of execution."
Ensure nginx is installed.,None,None,The package installed could get outdated because the script does not update,None,"Task did not checked the final execution of the task.
Task did not checked the final execution of the task.
Task did not checked the final execution of the task. None",None,"Task did not checked the correctness of execution.
Task did not checked the correctness of execution.
Task did not checked the correctness of execution."
