Repository Name,File Name,Line Number,Task Name,Smell Name,Smell Description
"['', 'home', 'ghazal', 'prengdl-reproduce', 'testScripts', 'Repository1']",setup-Archlinux.yml,2,Ensure nginx is installed.,Idempotency,None
"['', 'home', 'ghazal', 'prengdl-reproduce', 'testScripts', 'Repository1']",setup-Archlinux.yml,2,Ensure nginx is installed.,Version Specific Installation,None
"['', 'home', 'ghazal', 'prengdl-reproduce', 'testScripts', 'Repository1']",setup-Archlinux.yml,2,Ensure nginx is installed.,Outdated Dependencies,The package installed could get outdated because the script does not update
"['', 'home', 'ghazal', 'prengdl-reproduce', 'testScripts', 'Repository1']",setup-Archlinux.yml,2,Ensure nginx is installed.,Missing Dependencies,None
"['', 'home', 'ghazal', 'prengdl-reproduce', 'testScripts', 'Repository1']",setup-Archlinux.yml,2,Ensure nginx is installed.,Hardware Specific Commands,None
"['', 'home', 'ghazal', 'prengdl-reproduce', 'testScripts', 'Repository1']",setup-Archlinux.yml,2,Ensure nginx is installed.,Assumption about Environment,"Task did not checked the final execution of the task.
Task did not checked the final execution of the task. None"
"['', 'home', 'ghazal', 'prengdl-reproduce', 'testScripts', 'Repository1']",setup-Archlinux.yml,2,Ensure nginx is installed.,Broken Dependency Chain,"Task did not checked the correctness of execution.
Task did not checked the correctness of execution."
