Repository Name,File Name,Line Number,Task Name,Smell Name,Smell Description
"['', 'home', 'ghazal', 'prengdl-reproduce', 'testScripts', 'Repository1']",vhosts.yml,2,Remove default nginx vhost config file (if configured).,Idempotency,None
"['', 'home', 'ghazal', 'prengdl-reproduce', 'testScripts', 'Repository1']",vhosts.yml,2,Remove default nginx vhost config file (if configured).,Version Specific Installation,None
"['', 'home', 'ghazal', 'prengdl-reproduce', 'testScripts', 'Repository1']",vhosts.yml,2,Remove default nginx vhost config file (if configured).,Outdated Dependencies,None
"['', 'home', 'ghazal', 'prengdl-reproduce', 'testScripts', 'Repository1']",vhosts.yml,2,Remove default nginx vhost config file (if configured).,Missing Dependencies,Task is using relative path for source path
"['', 'home', 'ghazal', 'prengdl-reproduce', 'testScripts', 'Repository1']",vhosts.yml,2,Remove default nginx vhost config file (if configured).,Hardware Specific Commands,None
"['', 'home', 'ghazal', 'prengdl-reproduce', 'testScripts', 'Repository1']",vhosts.yml,2,Remove default nginx vhost config file (if configured).,Assumption about Environment,"Task did not checked the final execution of the task.
Task did not checked the final execution of the task.
Task did not checked the final execution of the task.
Task did not checked the final execution of the task.
Task did not checked the final execution of the task. None"
"['', 'home', 'ghazal', 'prengdl-reproduce', 'testScripts', 'Repository1']",vhosts.yml,2,Remove default nginx vhost config file (if configured).,Broken Dependency Chain,"Task did not checked the correctness of execution.
Task did not checked the correctness of execution.
Task did not checked the correctness of execution.
Task did not checked the correctness of execution.
Task did not checked the correctness of execution."
"['', 'home', 'ghazal', 'prengdl-reproduce', 'testScripts', 'Repository1']",vhosts.yml,10,Ensure nginx_vhost_path exists.,Idempotency,None
"['', 'home', 'ghazal', 'prengdl-reproduce', 'testScripts', 'Repository1']",vhosts.yml,10,Ensure nginx_vhost_path exists.,Version Specific Installation,None
"['', 'home', 'ghazal', 'prengdl-reproduce', 'testScripts', 'Repository1']",vhosts.yml,10,Ensure nginx_vhost_path exists.,Outdated Dependencies,None
"['', 'home', 'ghazal', 'prengdl-reproduce', 'testScripts', 'Repository1']",vhosts.yml,10,Ensure nginx_vhost_path exists.,Missing Dependencies,Task is using relative path for source path
"['', 'home', 'ghazal', 'prengdl-reproduce', 'testScripts', 'Repository1']",vhosts.yml,10,Ensure nginx_vhost_path exists.,Hardware Specific Commands,None
"['', 'home', 'ghazal', 'prengdl-reproduce', 'testScripts', 'Repository1']",vhosts.yml,10,Ensure nginx_vhost_path exists.,Assumption about Environment,"Task did not checked the final execution of the task.
Task did not checked the final execution of the task.
Task did not checked the final execution of the task.
Task did not checked the final execution of the task. None"
"['', 'home', 'ghazal', 'prengdl-reproduce', 'testScripts', 'Repository1']",vhosts.yml,10,Ensure nginx_vhost_path exists.,Broken Dependency Chain,"Task did not checked the correctness of execution.
Task did not checked the correctness of execution.
Task did not checked the correctness of execution.
Task did not checked the correctness of execution."
"['', 'home', 'ghazal', 'prengdl-reproduce', 'testScripts', 'Repository1']",vhosts.yml,18,Add managed vhost config files.,Idempotency,None
"['', 'home', 'ghazal', 'prengdl-reproduce', 'testScripts', 'Repository1']",vhosts.yml,18,Add managed vhost config files.,Version Specific Installation,None
"['', 'home', 'ghazal', 'prengdl-reproduce', 'testScripts', 'Repository1']",vhosts.yml,18,Add managed vhost config files.,Outdated Dependencies,None
"['', 'home', 'ghazal', 'prengdl-reproduce', 'testScripts', 'Repository1']",vhosts.yml,18,Add managed vhost config files.,Missing Dependencies,None
"['', 'home', 'ghazal', 'prengdl-reproduce', 'testScripts', 'Repository1']",vhosts.yml,18,Add managed vhost config files.,Hardware Specific Commands,None
"['', 'home', 'ghazal', 'prengdl-reproduce', 'testScripts', 'Repository1']",vhosts.yml,18,Add managed vhost config files.,Assumption about Environment,"Task did not checked the final execution of the task.
Task did not checked the final execution of the task.
Task did not checked the final execution of the task.
Task did not checked the final execution of the task.
Task did not checked the final execution of the task.
Task did not checked the final execution of the task.
Task did not checked the final execution of the task. None"
"['', 'home', 'ghazal', 'prengdl-reproduce', 'testScripts', 'Repository1']",vhosts.yml,18,Add managed vhost config files.,Broken Dependency Chain,"Task did not checked the correctness of execution.
Task did not checked the correctness of execution.
Task did not checked the correctness of execution.
Task did not checked the correctness of execution.
Task did not checked the correctness of execution.
Task did not checked the correctness of execution.
Task did not checked the correctness of execution."
"['', 'home', 'ghazal', 'prengdl-reproduce', 'testScripts', 'Repository1']",vhosts.yml,31,Remove managed vhost config files.,Idempotency,None
"['', 'home', 'ghazal', 'prengdl-reproduce', 'testScripts', 'Repository1']",vhosts.yml,31,Remove managed vhost config files.,Version Specific Installation,None
"['', 'home', 'ghazal', 'prengdl-reproduce', 'testScripts', 'Repository1']",vhosts.yml,31,Remove managed vhost config files.,Outdated Dependencies,None
"['', 'home', 'ghazal', 'prengdl-reproduce', 'testScripts', 'Repository1']",vhosts.yml,31,Remove managed vhost config files.,Missing Dependencies,Task is using relative path for source path
"['', 'home', 'ghazal', 'prengdl-reproduce', 'testScripts', 'Repository1']",vhosts.yml,31,Remove managed vhost config files.,Hardware Specific Commands,None
"['', 'home', 'ghazal', 'prengdl-reproduce', 'testScripts', 'Repository1']",vhosts.yml,31,Remove managed vhost config files.,Assumption about Environment,"Task did not checked the final execution of the task.
Task did not checked the final execution of the task.
Task did not checked the final execution of the task.
Task did not checked the final execution of the task.
Task did not checked the final execution of the task.
Task did not checked the final execution of the task.
Task did not checked the final execution of the task. None"
"['', 'home', 'ghazal', 'prengdl-reproduce', 'testScripts', 'Repository1']",vhosts.yml,31,Remove managed vhost config files.,Broken Dependency Chain,"Task did not checked the correctness of execution.
Task did not checked the correctness of execution.
Task did not checked the correctness of execution.
Task did not checked the correctness of execution.
Task did not checked the correctness of execution.
Task did not checked the correctness of execution.
Task did not checked the correctness of execution."
"['', 'home', 'ghazal', 'prengdl-reproduce', 'testScripts', 'Repository1']",vhosts.yml,33,Remove legacy vhosts.conf file.,Idempotency,None
"['', 'home', 'ghazal', 'prengdl-reproduce', 'testScripts', 'Repository1']",vhosts.yml,33,Remove legacy vhosts.conf file.,Version Specific Installation,None
"['', 'home', 'ghazal', 'prengdl-reproduce', 'testScripts', 'Repository1']",vhosts.yml,33,Remove legacy vhosts.conf file.,Outdated Dependencies,None
"['', 'home', 'ghazal', 'prengdl-reproduce', 'testScripts', 'Repository1']",vhosts.yml,33,Remove legacy vhosts.conf file.,Missing Dependencies,Task is using relative path for source path
"['', 'home', 'ghazal', 'prengdl-reproduce', 'testScripts', 'Repository1']",vhosts.yml,33,Remove legacy vhosts.conf file.,Hardware Specific Commands,None
"['', 'home', 'ghazal', 'prengdl-reproduce', 'testScripts', 'Repository1']",vhosts.yml,33,Remove legacy vhosts.conf file.,Assumption about Environment,"Task did not checked the final execution of the task.
Task did not checked the final execution of the task.
Task did not checked the final execution of the task.
Task did not checked the final execution of the task. None"
"['', 'home', 'ghazal', 'prengdl-reproduce', 'testScripts', 'Repository1']",vhosts.yml,33,Remove legacy vhosts.conf file.,Broken Dependency Chain,"Task did not checked the correctness of execution.
Task did not checked the correctness of execution.
Task did not checked the correctness of execution.
Task did not checked the correctness of execution."
